{
    "time": "2020-04-14T16:59:08.343509005+07:00",
    "level": "-",
    "prefix": "echo",
    "file": "recover.go",
    "line": "73",
    "message": "[PANIC RECOVER] reflect: call of reflect.Value.Elem on struct Value goroutine 8 [running]:webecho/vendor/github.com/labstack/echo/middleware.RecoverWithConfig.func1.1.1(0x8dd058, 0x1000, 0x0, 0x96e9e0, 0xc00016ad90)\n\t/home/jeki/work/go/src/webecho/vendor/github.com/labstack/echo/middleware/recover.go:71 +0xee\npanic(0x838de0, 0xc00000f1e0)\n\t/usr/local/go/src/runtime/panic.go:969 +0x166\nreflect.Value.Elem(0x88cd20, 0xc00006b740, 0x99, 0x203000, 0x0, 0x112)\n\t/usr/local/go/src/reflect/value.go:820 +0x1a4\nmain.Merge(0x88cd20, 0xc00006b740, 0xc0001d1680, 0xc00006b740, 0xc0001d17a8)\n\t/home/jeki/work/go/src/webecho/custom.go:15 +0xda\nmain.glob..func2(0x96e9e0, 0xc00016ad90, 0xc000020110, 0xc000020110)\n\t/home/jeki/work/go/src/webecho/main.go:91 +0x4a4\nwebecho/vendor/github.com/labstack/echo.(*Echo).Add.func1(0x96e9e0, 0xc00016ad90, 0x95c740, 0xc000020110)\n\t/home/jeki/work/go/src/webecho/vendor/github.com/labstack/echo/echo.go:490 +0x8a\nwebecho/vendor/github.com/labstack/echo/middleware.StaticWithConfig.func1.1(0x96e9e0, 0xc00016ad90, 0x0, 0xc0000539c8)\n\t/home/jeki/work/go/src/webecho/vendor/github.com/labstack/echo/middleware/static.go:169 +0x2b9\nwebecho/vendor/github.com/labstack/echo/middleware.RecoverWithConfig.func1.1(0x96e9e0, 0xc00016ad90, 0x0, 0x0)\n\t/home/jeki/work/go/src/webecho/vendor/github.com/labstack/echo/middleware/recover.go:78 +0x12a\nwebecho/vendor/github.com/labstack/echo/middleware.LoggerWithConfig.func2.1(0x96e9e0, 0xc00016ad90, 0x0, 0x0)\n\t/home/jeki/work/go/src/webecho/vendor/github.com/labstack/echo/middleware/logger.go:118 +0x130\nwebecho/vendor/github.com/labstack/echo.(*Echo).ServeHTTP(0xc00000c1e0, 0x9635c0, 0xc00017e1c0, 0xc000180300)\n\t/home/jeki/work/go/src/webecho/vendor/github.com/labstack/echo/echo.go:593 +0x222\nnet/http.serverHandler.ServeHTTP(0xc00017e000, 0x9635c0, 0xc00017e1c0, 0xc000180300)\n\t/usr/local/go/src/net/http/server.go:2807 +0xa3\nnet/http.(*conn).serve(0xc000111180, 0x964380, 0xc0000689c0)\n\t/usr/local/go/src/net/http/server.go:1895 +0x86c\ncreated by net/http.(*Server).Serve\n\t/usr/local/go/src/net/http/server.go:2933 +0x35c\n\ngoroutine 1 [IO wait]:\ninternal/poll.runtime_pollWait(0x7f49d0202f48, 0x72, 0x0)\n\t/usr/local/go/src/runtime/netpoll.go:203 +0x55\ninternal/poll.(*pollDesc).wait(0xc000154398, 0x72, 0x0, 0x0, 0x8b8558)\n\t/usr/local/go/src/internal/poll/fd_poll_runtime.go:87 +0x45\ninternal/poll.(*pollDesc).waitRead(...)\n\t/usr/local/go/src/internal/poll/fd_poll_runtime.go:92\ninternal/poll.(*FD).Accept(0xc000154380, 0x0, 0x0, 0x0, 0x0, 0x0, 0x0, 0x0)\n\t/usr/local/go/src/internal/poll/fd_unix.go:384 +0x1d4\nnet.(*netFD).accept(0xc000154380, 0x203000, 0x203000, 0x203000)\n\t/usr/local/go/src/net/fd_unix.go:238 +0x42\nnet.(*TCPListener).accept(0xc00000ec80, 0xc00018dc98, 0x40dc06, 0xc0000a60a0)\n\t/usr/local/go/src/net/tcpsock_posix.go:139 +0x32\nnet.(*TCPListener).AcceptTCP(0xc00000ec80, 0x7c741ee4eae898dc, 0xc00018dc70, 0x455199)\n\t/usr/local/go/src/net/tcpsock.go:248 +0x65\nwebecho/vendor/github.com/labstack/echo.tcpKeepAliveListener.Accept(0xc00000ec80, 0xc00018dc98, 0x4baff6, 0x5e95896c, 0x43ed4e)\n\t/home/jeki/work/go/src/webecho/vendor/github.com/labstack/echo/echo.go:767 +0x2f\nnet/http.(*Server).Serve(0xc00017e000, 0x963a80, 0xc000010118, 0x0, 0x0)\n\t/usr/local/go/src/net/http/server.go:2901 +0x25d\nwebecho/vendor/github.com/labstack/echo.(*Echo).StartServer(0xc00000c1e0, 0xc00017e000, 0x3, 0x8bbcc7)\n\t/home/jeki/work/go/src/webecho/vendor/github.com/labstack/echo/echo.go:663 +0x385\nwebecho/vendor/github.com/labstack/echo.(*Echo).Start(...)\n\t/home/jeki/work/go/src/webecho/vendor/github.com/labstack/echo/echo.go:604\nmain.main()\n\t/home/jeki/work/go/src/webecho/main.go:181 +0x5e4\n\ngoroutine 19 [select]:\nnet/http.(*persistConn).writeLoop(0xc000116b40)\n\t/usr/local/go/src/net/http/transport.go:2277 +0x11c\ncreated by net/http.(*Transport).dialConn\n\t/usr/local/go/src/net/http/transport.go:1648 +0xc7b\n\ngoroutine 9 [IO wait]:\ninternal/poll.runtime_pollWait(0x7f49d0202e68, 0x72, 0xffffffffffffffff)\n\t/usr/local/go/src/runtime/netpoll.go:203 +0x55\ninternal/poll.(*pollDesc).wait(0xc000154418, 0x72, 0x0, 0x1, 0xffffffffffffffff)\n\t/usr/local/go/src/internal/poll/fd_poll_runtime.go:\n"
}
{
    "time": "2020-04-14T16:59:08.344488305+07:00",
    "id": "",
    "remote_ip": "::1",
    "host": "localhost:9200",
    "method": "GET",
    "uri": "/get/students?name=jokobro&age=22",
    "user_agent": "Mozilla/5.0 (X11; Linux x86_64) AppleWebKit/537.36 (KHTML, like Gecko) Chrome/80.0.3987.149 Safari/537.36",
    "status": 500,
    "error": "",
    "latency": 5735584,
    "latency_human": "5.735584ms",
    "bytes_in": 0,
    "bytes_out": 36
}